<svg width="55" height="54" viewBox="0 0 55 54" fill="none" xmlns="http://www.w3.org/2000/svg">
<path d="M38.4219 34.2911L38.3295 34.3815C35.2874 37.3593 31.2353 39 26.9219 39C22.6079 39 18.5564 37.3598 15.5136 34.3815L15.4219 34.2911L15.4435 34.1752C16.0311 31.0487 18.0332 28.5372 21.0811 27.1019L21.2977 27L21.4704 27.1476C22.9099 28.3797 24.8458 29.0576 26.9212 29.0576C28.9967 29.0576 30.9326 28.3792 32.3721 27.1476L32.5447 27L32.7614 27.1019C35.8093 28.5372 37.8114 31.0487 38.3996 34.1752L38.4219 34.2911Z" fill="white"/>
<path d="M26.9223 25.5863C30.0407 25.5863 32.578 22.9875 32.578 19.7934C32.578 16.5993 30.0407 14 26.9223 14C23.8039 14 21.2666 16.5993 21.2666 19.7929C21.2666 22.9864 23.8039 25.5863 26.9223 25.5863Z" fill="white"/>
</svg>
